programme hepial3
    entier x;
    entier y;
    entier z;
    entier p;
    entier d;
    entier i;
debutprg
    x = 1;
    y = 5;
    z = x + y;
    x = 5 - z;
    si x == 5 alors
        x = x + 3;
        p = x * z;
    sinon
        x = x + 5;
        y = 5;
    finsi
    d = 4 / 2;
    pour i allantde 1 a 9 + 1 faire
        x = x + i;
    finpour
    tantque z <= 5 faire
        z = z + 1;
    fintantque
    ecrire "valeur de x :";
    ecrire x;
    ecrire "valeur de y :";
    ecrire y;
    ecrire "merci tchao !";
finprg
