\beamer@endinputifotherversion {3.33pt}
\select@language {french}
\beamer@sectionintoc {1}{Structure du projet}{3}{0}{1}
\beamer@sectionintoc {2}{Etat du projet}{4}{0}{2}
\beamer@sectionintoc {3}{R\IeC {\'e}sultats}{6}{0}{3}
\beamer@sectionintoc {4}{D\IeC {\'e}mo}{12}{0}{4}
